{
  "data": [
    {
      "id": 86840,
      "common_name": "Shy sun orchid",
      "slug": "thelymitra-graminea",
      "scientific_name": "Thelymitra graminea",
      "year": 1840,
      "bibliography": "Sketch Veg. Swan R.: 49 (1840)",
      "author": "Lindl.",
      "status": "accepted",
      "rank": "species",
      "family_common_name": null,
      "genus_id": 3956,
      "image_url": "https://bs.plantnet.org/image/o/c8d7856069184d667b10f6994c4139a47593466c",
      "synonyms": [],
      "genus": "Thelymitra",
      "family": "Orchidaceae",
      "links": {
        "self": "/api/v1/species/thelymitra-graminea",
        "plant": "/api/v1/plants/thelymitra-graminea",
        "genus": "/api/v1/genus/thelymitra"
      }
    },
    {
      "id": 290764,
      "common_name": "Sun conebush",
      "slug": "leucadendron-sessile",
      "scientific_name": "Leucadendron sessile",
      "year": 1810,
      "bibliography": "Brown R (1810) IV. On the Proteaceae of Jussieu. Transactions of the Linnean Society of London 10(1): 15-226. doi: 10.1111/j.1096-3642.1810.tb00013.x.",
      "author": "R.Br.",
      "status": "accepted",
      "rank": "species",
      "family_common_name": null,
      "genus_id": 5952,
      "image_url": "https://bs.plantnet.org/image/o/536bdf82180c333d5aae68837d8718a710d6def3",
      "synonyms": ["Protea sessilis"],
      "genus": "Leucadendron",
      "family": "Proteaceae",
      "links": {
        "self": "/api/v1/species/leucadendron-sessile",
        "plant": "/api/v1/plants/leucadendron-sessile",
        "genus": "/api/v1/genus/leucadendron"
      }
    },
    {
      "id": 86860,
      "common_name": "Large-leafed sun orchid",
      "slug": "thelymitra-macrophylla",
      "scientific_name": "Thelymitra macrophylla",
      "year": 1840,
      "bibliography": "Sketch Veg. Swan R.: 49 (1840)",
      "author": "Lindl.",
      "status": "accepted",
      "rank": "species",
      "family_common_name": null,
      "genus_id": 3956,
      "image_url": "https://bs.plantnet.org/image/o/dcea2277573bf7ff28d8a8b210aadbc67f698f05",
      "synonyms": [],
      "genus": "Thelymitra",
      "family": "Orchidaceae",
      "links": {
        "self": "/api/v1/species/thelymitra-macrophylla",
        "plant": "/api/v1/plants/thelymitra-macrophylla",
        "genus": "/api/v1/genus/thelymitra"
      }
    },
    {
      "id": 86830,
      "common_name": null,
      "slug": "thelymitra-cyanea",
      "scientific_name": "Thelymitra cyanea",
      "year": 1873,
      "bibliography": "Fl. Austral. 6: 323 (1873)",
      "author": "Lindl. ex Benth.",
      "status": "accepted",
      "rank": "species",
      "family_common_name": null,
      "genus_id": 3956,
      "image_url": "https://d2seqvvyy3b8p2.cloudfront.net/0b71592f8f1d6802fe7e11728729842d.jpg",
      "synonyms": [
        "Thelymitra venosa var. cedricsmithii",
        "Thelymitra venosa var. cyanea",
        "Macdonaldia cyanea",
        "Thelymitra uniflora"
      ],
      "genus": "Thelymitra",
      "family": "Orchidaceae",
      "links": {
        "self": "/api/v1/species/thelymitra-cyanea",
        "plant": "/api/v1/plants/thelymitra-cyanea",
        "genus": "/api/v1/genus/thelymitra"
      }
    },
    {
      "id": 156250,
      "common_name": null,
      "slug": "camissonia-strigulosa",
      "scientific_name": "Camissonia strigulosa",
      "year": 1969,
      "bibliography": "Contr. U.S. Natl. Herb. 37: 333 (1969)",
      "author": "(Fisch. & C.A.Mey.) P.H.Raven",
      "status": "accepted",
      "rank": "species",
      "family_common_name": null,
      "genus_id": 7119,
      "image_url": null,
      "synonyms": [
        "Sphaerostigma strigulosum",
        "Oenothera contorta var. epilobioides",
        "Sphaerostigma contortum",
        "Oenothera contorta var. strigulosa",
        "Oenothera strigulosa var. epilobioides",
        "Oenothera strigulosa"
      ],
      "genus": "Camissonia",
      "family": "Onagraceae",
      "links": {
        "self": "/api/v1/species/camissonia-strigulosa",
        "plant": "/api/v1/plants/camissonia-strigulosa",
        "genus": "/api/v1/genus/camissonia"
      }
    },
    {
      "id": 135715,
      "common_name": "Santa cruz island suncup",
      "slug": "camissoniopsis-hirtella",
      "scientific_name": "Camissoniopsis hirtella",
      "year": 2007,
      "bibliography": "Syst. Bot. Monogr. 83:204.  2007",
      "author": "W.L.Wagner & Hoch (Greene)",
      "status": "accepted",
      "rank": "species",
      "family_common_name": null,
      "genus_id": 7120,
      "image_url": "https://bs.plantnet.org/image/o/d2efb6e9514049012c9f0ec03139d77eaf9f2c1e",
      "synonyms": [
        "Sphaerostigma hirtellum",
        "Oenothera micrantha var. jonesii",
        "Sphaerostigma micranthum var. jonesii",
        "Oenothera hirta var. jonesii",
        "Oenothera micrantha var. hirtella",
        "Camissonia hirtella",
        "Sphaerostigma hirtellum var. montanum",
        "Oenothera jonesii"
      ],
      "genus": "Camissoniopsis",
      "family": "Onagraceae",
      "links": {
        "self": "/api/v1/species/camissoniopsis-hirtella",
        "plant": "/api/v1/plants/camissoniopsis-hirtella",
        "genus": "/api/v1/genus/camissoniopsis"
      }
    },
    {
      "id": 256579,
      "common_name": null,
      "slug": "euphorbia-radians",
      "scientific_name": "Euphorbia radians",
      "year": 1839,
      "bibliography": "Pl. Hartw.: 8 (1839)",
      "author": "Benth.",
      "status": "accepted",
      "rank": "species",
      "family_common_name": null,
      "genus_id": 5545,
      "image_url": "https://d2seqvvyy3b8p2.cloudfront.net/9cec395c6adbde9f5e5e3edb319d434a.jpg",
      "synonyms": ["Poinsettia radians"],
      "genus": "Euphorbia",
      "family": "Euphorbiaceae",
      "links": {
        "self": "/api/v1/species/euphorbia-radians",
        "plant": "/api/v1/plants/euphorbia-radians",
        "genus": "/api/v1/genus/euphorbia"
      }
    },
    {
      "id": 314739,
      "common_name": null,
      "slug": "grimmia-montana",
      "scientific_name": "Grimmia montana",
      "year": 1845,
      "bibliography": "Bryol. Eur., 3: 128. (pl. 250 fasc. 25–28. Monogr. 26. pl. 14), 128, 1845",
      "author": "Bruch & W.P.Schimper",
      "status": "accepted",
      "rank": "species",
      "family_common_name": null,
      "genus_id": 12513,
      "image_url": null,
      "synonyms": [],
      "genus": "Grimmia",
      "family": "Grimmiaceae",
      "links": {
        "self": "/api/v1/species/grimmia-montana",
        "plant": "/api/v1/plants/grimmia-montana",
        "genus": "/api/v1/genus/grimmia"
      }
    },
    {
      "id": 20246,
      "common_name": "Achicoria azul",
      "slug": "launaea-intybacea",
      "scientific_name": "Launaea intybacea",
      "year": 1910,
      "bibliography": "Bull. Soc. Bot. Genève, sér. 2: 2: 114 (1910)",
      "author": "(Jacq.) Beauverd",
      "status": "accepted",
      "rank": "species",
      "family_common_name": "Aster family",
      "genus_id": 353,
      "image_url": "https://bs.plantnet.org/image/o/2f3bb67aaf601b0fa402d6ada6e6900531d886b1",
      "synonyms": [
        "Cacalia sonchifolia",
        "Sonchus goraeensis",
        "Sonchus ciliatus",
        "Brachyramphus sonchifolius",
        "Lactuca goraeensis",
        "Sonchus paniculatus",
        "Lactuca virgata",
        "Sonchus spachii",
        "Phaenixopus intybaceus",
        "Lactuca nubica",
        "Scorzonera africana",
        "Microrhynchus surinamensis",
        "Sonchus taraxacifolius",
        "Brachyramphus remotiflorus",
        "Brachyramphus caribaeus",
        "Ammoseris surinamensis",
        "Lactuca arabica",
        "Launaea goraeensis",
        "Brachyramphus goraeensis",
        "Cicerbita intybacea",
        "Brachyramphus intybaceus",
        "Trachodes paniculata",
        "Prenanthes sonchifolia",
        "Lactuca heyneana",
        "Launaea remotiflora",
        "Lactuca pinnatifida",
        "Lactuca intybacea",
        "Lactuca remotiflora",
        "Launaea kuriensis",
        "Lactuca octophylla",
        "Brachyramphus schimperi",
        "Lactuca schimperi",
        "Lactuca runcinata",
        "Microrhynchus octophyllus"
      ],
      "genus": "Launaea",
      "family": "Asteraceae",
      "links": {
        "self": "/api/v1/species/launaea-intybacea",
        "plant": "/api/v1/plants/launaea-intybacea",
        "genus": "/api/v1/genus/launaea"
      }
    },
    {
      "id": 104218,
      "common_name": null,
      "slug": "brasenia-schreberi",
      "scientific_name": "Brasenia schreberi",
      "year": 1791,
      "bibliography": "Syst. Nat. ed. 13[bis].: 853 (1791)",
      "author": "J.F.Gmel.",
      "status": "accepted",
      "rank": "species",
      "family_common_name": null,
      "genus_id": 5085,
      "image_url": "https://storage.googleapis.com/powop-assets/PPA/1000_1099/h1036a_fullsize.jpg",
      "synonyms": [
        "Brasenia peltata",
        "Hydropeltis purpurea",
        "Cabomba peltata",
        "Brasenia hydropeltis",
        "Brasenia pelta",
        "Hydropeltis pulla",
        "Brasenia nymphoides",
        "Brasenia purpurea",
        "Menyanthes peltata"
      ],
      "genus": "Brasenia",
      "family": "Cabombaceae",
      "links": {
        "self": "/api/v1/species/brasenia-schreberi",
        "plant": "/api/v1/plants/brasenia-schreberi",
        "genus": "/api/v1/genus/brasenia"
      }
    },
    {
      "id": 167032,
      "common_name": null,
      "slug": "crocanthemum-canadense",
      "scientific_name": "Crocanthemum canadense",
      "year": 1913,
      "bibliography": "N.L.Britton & A.Brown, Ill. Fl. N. U.S., ed. 2, 2: 540 (1913)",
      "author": "(L.) Britton",
      "status": "accepted",
      "rank": "species",
      "family_common_name": null,
      "genus_id": 8491,
      "image_url": null,
      "synonyms": [
        "Helianthemum majus",
        "Halimium canadense",
        "Helianthemum canadense var. sabulonum",
        "Helianthemum corymbosum",
        "Trichasterophyllum majus",
        "Heteromeris michauxii",
        "Cistus canadensis",
        "Heteromeris cymosa",
        "Heteromeris canadensis",
        "Cistus ramuliflorus",
        "Helianthemum ramuliflorum",
        "Helianthemum canadense",
        "Crocanthemum majus",
        "Trichasterophyllum canadense"
      ],
      "genus": "Crocanthemum",
      "family": "Cistaceae",
      "links": {
        "self": "/api/v1/species/crocanthemum-canadense",
        "plant": "/api/v1/plants/crocanthemum-canadense",
        "genus": "/api/v1/genus/crocanthemum"
      }
    },
    {
      "id": 167030,
      "common_name": null,
      "slug": "crocanthemum-bicknellii",
      "scientific_name": "Crocanthemum bicknellii",
      "year": 1925,
      "bibliography": "H.G.A.Engler, Nat. Pflanzenfam. ed. 2, 21: 307 (1925)",
      "author": "(Fernald) Janch.",
      "status": "accepted",
      "rank": "species",
      "family_common_name": null,
      "genus_id": 8491,
      "image_url": null,
      "synonyms": [
        "Halimium majus",
        "Helianthemum canadense var. walkerae",
        "Helianthemum bicknellii"
      ],
      "genus": "Crocanthemum",
      "family": "Cistaceae",
      "links": {
        "self": "/api/v1/species/crocanthemum-bicknellii",
        "plant": "/api/v1/plants/crocanthemum-bicknellii",
        "genus": "/api/v1/genus/crocanthemum"
      }
    },
    {
      "id": 11414,
      "common_name": "Namaqualand daisy",
      "slug": "dimorphotheca-sinuata",
      "scientific_name": "Dimorphotheca sinuata",
      "year": 1838,
      "bibliography": "Prodr. 6: 72 (1838)",
      "author": "DC.",
      "status": "accepted",
      "rank": "species",
      "family_common_name": "Aster family",
      "genus_id": 103,
      "image_url": "https://bs.plantnet.org/image/o/fe3a94a0f5dc58544034ca232f6da2de26fd4a00",
      "synonyms": [
        "Acanthotheca integrifolia",
        "Dimorphotheca calendulacea",
        "Dimorphotheca dentata",
        "Dimorphotheca pseudaurantiaca",
        "Dimorphotheca integrifolia",
        "Acanthotheca dentata"
      ],
      "genus": "Dimorphotheca",
      "family": "Asteraceae",
      "links": {
        "self": "/api/v1/species/dimorphotheca-sinuata",
        "plant": "/api/v1/plants/dimorphotheca-sinuata",
        "genus": "/api/v1/genus/dimorphotheca"
      }
    },
    {
      "id": 161602,
      "common_name": "Laurel-leaf cistus",
      "slug": "cistus-laurifolius",
      "scientific_name": "Cistus laurifolius",
      "year": 1753,
      "bibliography": "Sp. Pl.: 523 (1753)",
      "author": "L.",
      "status": "accepted",
      "rank": "species",
      "family_common_name": null,
      "genus_id": 6945,
      "image_url": "https://bs.plantnet.org/image/o/3dc66956911d86b3020ffff9e50b690202410175",
      "synonyms": [],
      "genus": "Cistus",
      "family": "Cistaceae",
      "links": {
        "self": "/api/v1/species/cistus-laurifolius",
        "plant": "/api/v1/plants/cistus-laurifolius",
        "genus": "/api/v1/genus/cistus"
      }
    },
    {
      "id": 23750,
      "common_name": null,
      "slug": "rudbeckia-heliopsidis",
      "scientific_name": "Rudbeckia heliopsidis",
      "year": 1842,
      "bibliography": "Fl. N. Amer. 2: 310 (1842)",
      "author": "Torr. & A.Gray",
      "status": "accepted",
      "rank": "species",
      "family_common_name": "Aster family",
      "genus_id": 347,
      "image_url": null,
      "synonyms": ["Rudbeckia heliopsidis f. villipes"],
      "genus": "Rudbeckia",
      "family": "Asteraceae",
      "links": {
        "self": "/api/v1/species/rudbeckia-heliopsidis",
        "plant": "/api/v1/plants/rudbeckia-heliopsidis",
        "genus": "/api/v1/genus/rudbeckia"
      }
    },
    {
      "id": 255852,
      "common_name": "Wolf's-milk",
      "slug": "euphorbia-helioscopia",
      "scientific_name": "Euphorbia helioscopia",
      "year": 1753,
      "bibliography": "Sp. Pl.: 459 (1753)",
      "author": "L.",
      "status": "accepted",
      "rank": "species",
      "family_common_name": null,
      "genus_id": 5545,
      "image_url": "https://bs.plantnet.org/image/o/f55807fe9a475f6ca4a6c2ea79cedc99e501fd5c",
      "synonyms": [
        "Tithymalus helioscopius",
        "Galarhoeus helioscopius",
        "Euphorbion helioscopium"
      ],
      "genus": "Euphorbia",
      "family": "Euphorbiaceae",
      "links": {
        "self": "/api/v1/species/euphorbia-helioscopia",
        "plant": "/api/v1/plants/euphorbia-helioscopia",
        "genus": "/api/v1/genus/euphorbia"
      }
    },
    {
      "id": 15049,
      "common_name": null,
      "slug": "launaea-petitiana",
      "scientific_name": "Launaea petitiana",
      "year": 1997,
      "bibliography": "Englera 17: 231 (1997)",
      "author": "(A.Rich.) N.Kilian",
      "status": "accepted",
      "rank": "species",
      "family_common_name": "Aster family",
      "genus_id": 353,
      "image_url": "https://d2seqvvyy3b8p2.cloudfront.net/67064bfa6df08e3948e1f6b1f3d8998b.jpg",
      "synonyms": [
        "Lactuca petitiana",
        "Launaea nigricola",
        "Sonchus hochstetteri"
      ],
      "genus": "Launaea",
      "family": "Asteraceae",
      "links": {
        "self": "/api/v1/species/launaea-petitiana",
        "plant": "/api/v1/plants/launaea-petitiana",
        "genus": "/api/v1/genus/launaea"
      }
    },
    {
      "id": 8497,
      "common_name": null,
      "slug": "launaea-taraxacifolia",
      "scientific_name": "Launaea taraxacifolia",
      "year": 1966,
      "bibliography": "Kew Bull. 18(3): 474 (1966)",
      "author": "(Willd.) Amin ex C.Jeffrey",
      "status": "accepted",
      "rank": "species",
      "family_common_name": "Aster family",
      "genus_id": 353,
      "image_url": "https://d2seqvvyy3b8p2.cloudfront.net/62aff002a3ff87a948c089af28513005.jpg",
      "synonyms": [
        "Microrhynchus pentaphyllus",
        "Sonchus pentaphyllus",
        "Lactuca kotschyi",
        "Sonchus serratus",
        "Lactuca pentaphylla"
      ],
      "genus": "Launaea",
      "family": "Asteraceae",
      "links": {
        "self": "/api/v1/species/launaea-taraxacifolia",
        "plant": "/api/v1/plants/launaea-taraxacifolia",
        "genus": "/api/v1/genus/launaea"
      }
    },
    {
      "id": 192993,
      "common_name": null,
      "slug": "helianthemum-dagestanicum",
      "scientific_name": "Helianthemum dagestanicum",
      "year": 1869,
      "bibliography": "Fl. Caucasi: 143 (1869)",
      "author": "Rupr.",
      "status": "accepted",
      "rank": "species",
      "family_common_name": null,
      "genus_id": 7035,
      "image_url": null,
      "synonyms": [],
      "genus": "Helianthemum",
      "family": "Cistaceae",
      "links": {
        "self": "/api/v1/species/helianthemum-dagestanicum",
        "plant": "/api/v1/plants/helianthemum-dagestanicum",
        "genus": "/api/v1/genus/helianthemum"
      }
    },
    {
      "id": 129610,
      "common_name": "Moss-rose",
      "slug": "portulaca-grandiflora",
      "scientific_name": "Portulaca grandiflora",
      "year": 1829,
      "bibliography": "Bot. Mag. 56: t. 2885.  1829",
      "author": "Hook.",
      "status": "accepted",
      "rank": "species",
      "family_common_name": null,
      "genus_id": 6638,
      "image_url": "https://bs.plantnet.org/image/o/07dcf1bb845880c6b46790b04804dab67dd7450b",
      "synonyms": [
        "Portulaca grandiflora var. typica",
        "Portulaca pilosa subsp. grandiflora",
        "Portulaca pilosa var. grandiflora"
      ],
      "genus": "Portulaca",
      "family": "Portulacaceae",
      "links": {
        "self": "/api/v1/species/portulaca-grandiflora",
        "plant": "/api/v1/plants/portulaca-grandiflora",
        "genus": "/api/v1/genus/portulaca"
      }
    }
  ],
  "links": {
    "self": "/api/v1/plants/search?q=Sun",
    "first": "/api/v1/plants/search?page=1&q=Sun",
    "next": "/api/v1/plants/search?page=2&q=Sun",
    "last": "/api/v1/plants/search?page=8&q=Sun"
  },
  "meta": {
    "total": 142
  }
}
